
=================================================================
  Scan File  by a1.php
  Scan PHP File (simple scan 'function' ) 
  2016-11-25 07:59:11
=================================================================
   Scan File 1. 'c:\xampp\htdocs\taxbreak\native\export_pdf.php'  OK  
  01 function 


**/

// from http://www.thaicreate.com/php/forum/075810.html

// REF GOOD at ==> https://www.setasign.com/products/fpdi/about/
//  ==>  https://manuals.setasign.com/fpdi-manual/the-fpdi-class/examples/#index-1

/* user id from session */
$ss_idcard =  '3450300070285'; 
 
define ('IS_DEBUG', false);

// set include path 
define ('BASEPATH', 'C:\\xampp\\htdocs\\taxbreak\\');
$fpdf_path = "C:\\xampp\\htdocs\\taxbreak\\vendor\\setasign\\" ;
$fpdf_path = "C:\\xampp\\htdocs\\taxbreak\\vendor\\setasign\\" ;
$template_pdf = 'C:\\xampp\\htdocs\\taxbreak\\upload234\\lodyod_template.pdf';
$app_path = "C:\\xampp\\htdocs\\taxbreak\\" ;
$ci_lib_path = $app_path . "application\\libraries\\";

// Load Library in CI and File 
include_once( $ci_lib_path . "DataFile.php" );
$data_row  = new Datafile();	    // <== now you get data row 


// Load Point File .json 
$json =file_get_contents($app_path . "upload234\\_point_xy.json");
$arrxy = json_decode($json) ;

if(IS_DEBUG) 
  02 function fillarray($cols , & $arrxy)
  03 function __construct($arrxy)
  04 function declareColumnsBuildIn()
  05 function parseColumns()
  06 function parseFnConcat( )
  07 function getVarObj($cname)
  08 function getVarText($cname)
  09 function dump_var_all()
  10 function dump_var_visible()
  11 function get_objs_visible()
  12 function get_objs_all()
  13 function utf2thai($txutf8)
  14 function addfont_setfont($pdf,$size=16 )
  15 function display2($pdf, $intp)
  16 function display1($pdf,$arrxy_all ,$display_cname = false )
  17 function writexy_utf2thai_xyobj($pdf,$x,$y , $xyobj)
  18 function writexy_utf2thai($pdf,$x,$y ,$txutf8)
  19 function set_text_blue($pdf)
  20 function set_text_red($pdf)
  21 function set_text_silver($pdf)
  22 function cellxy($pdf, $x,$y, $a, $txutf8)

 SCAN BY parseFunction (Still Error ! )

 Error Expect '(' but found 'from http://www.thaic' 